INDEX VERSION 1.131+C:\Users\natal\eclipse-workspace\SO\.metadata\.plugins\org.eclipse.jdt.core
2772419465.index
2060039664.index
165794779.index
962863360.index
3973945260.index
4069293921.index
4120324546.index
2975910402.index
364096953.index
2755271588.index
753608048.index
646436966.index
379664343.index
3384131066.index
3572716771.index
2845807539.index
3429681154.index
1459523266.index
1151569180.index
